1;Digitopuntura
2;Drenaje linfático
20;Fisioterapia
3;Masaje anticelulítico
4;Masaje ayurvédico
5;Masaje californiano
6;Masaje circulatorio
7;Masaje con piedras
8;Masaje deportivo
9;Masaje descontracturante
10;Masaje hawaiano
11;Masaje prenatal
12;Masaje relajante
13;Masaje sueco
14;Masaje tailandés
15;Masaje terapéutico
21;Osteopatía
16;Quiromasaje
17;Quiropráctica
18;Reflexología podal
22;Reiki
19;Shiatsu
